Liczba falowa [cm-1]	Absorbancja [a.u.]
3996,46987	0,0008
3994,54107	0,0008
3992,61227	0,00082
3990,68347	0,00081
3988,75467	0,00078
3986,82588	0,00077
3984,89708	0,00081
3982,96828	0,00089
3981,03948	0,00094
3979,11068	0,00091
3977,18189	0,00086
3975,25309	0,00085
3973,32429	0,00086
3971,39549	0,00087
3969,46669	0,00087
3967,53789	0,00086
3965,6091	0,0008
3963,6803	0,00074
3961,7515	0,00077
3959,8227	0,00081
3957,8939	0,00077
3955,96511	0,00073
3954,03631	0,00075
3952,10751	0,00078
3950,17871	0,00081
3948,24991	0,00081
3946,32111	0,00076
3944,39232	0,00072
3942,46352	0,00071
3940,53472	0,00073
3938,60592	0,00074
3936,67712	0,00071
3934,74833	0,00069
3932,81953	0,00073
3930,89073	0,00079
3928,96193	0,00084
3927,03313	0,00087
3925,10433	0,00086
3923,17554	0,0008
3921,24674	0,00075
3919,31794	0,00075
3917,38914	0,00075
3915,46034	0,00073
3913,53155	0,0007
3911,60275	0,00067
3909,67395	0,00066
3907,74515	0,00072
3905,81635	0,00084
3903,88755	0,00094
3901,95876	0,00096
3900,02996	0,00091
3898,10116	0,00085
3896,17236	0,00079
3894,24356	0,00075
3892,31476	0,00073
3890,38597	0,00074
3888,45717	0,00078
3886,52837	0,00083
3884,59957	0,00083
3882,67077	0,00081
3880,74198	0,00077
3878,81318	0,00071
3876,88438	0,00068
3874,95558	0,00075
3873,02678	0,00085
3871,09798	0,00089
3869,16919	0,00086
3867,24039	0,00082
3865,31159	0,00079
3863,38279	0,00078
3861,45399	0,00076
3859,5252	0,00076
3857,5964	0,00082
3855,6676	0,00096
3853,7388	0,00108
3851,81	0,00096
3849,8812	0,00078
3847,95241	0,00073
3846,02361	0,00076
3844,09481	0,0008
3842,16601	0,00086
3840,23721	0,00092
3838,30842	0,00093
3836,37962	0,00087
3834,45082	0,00084
3832,52202	0,00084
3830,59322	0,0008
3828,66442	0,00076
3826,73563	0,00076
3824,80683	0,00076
3822,87803	0,00077
3820,94923	0,00081
3819,02043	0,00079
3817,09164	0,00075
3815,16284	0,00073
3813,23404	0,00072
3811,30524	0,00073
3809,37644	0,00079
3807,44764	0,00086
3805,51885	0,00085
3803,59005	0,0008
3801,66125	0,0008
3799,73245	0,00081
3797,80365	0,00079
3795,87486	0,00073
3793,94606	0,00064
3792,01726	0,0006
3790,08846	0,00061
3788,15966	0,0006
3786,23086	0,00061
3784,30207	0,00067
3782,37327	0,00072
3780,44447	0,00073
3778,51567	0,00072
3776,58687	0,00068
3774,65807	0,00066
3772,72928	0,00068
3770,80048	0,00072
3768,87168	0,00074
3766,94288	0,00073
3765,01408	0,00071
3763,08529	0,00073
3761,15649	0,0008
3759,22769	0,00081
3757,29889	0,00071
3755,37009	0,00066
3753,44129	0,00076
3751,5125	0,0009
3749,5837	0,00093
3747,6549	0,00091
3745,7261	0,00091
3743,7973	0,00088
3741,86851	0,0008
3739,93971	0,00071
3738,01091	0,00066
3736,08211	0,00069
3734,15331	0,00071
3732,22451	0,00065
3730,29572	0,0006
3728,36692	0,00057
3726,43812	0,00057
3724,50932	0,00059
3722,58052	0,00055
3720,65173	0,00049
3718,72293	0,0005
3716,79413	0,00059
3714,86533	0,00068
3712,93653	0,00071
3711,00773	0,00071
3709,07894	0,00067
3707,15014	0,00059
3705,22134	0,00055
3703,29254	0,0006
3701,36374	0,00062
3699,43495	0,00057
3697,50615	0,00053
3695,57735	0,00053
3693,64855	0,00056
3691,71975	0,00069
3689,79095	0,00085
3687,86216	0,00086
3685,93336	0,00077
3684,00456	0,00071
3682,07576	0,00073
3680,14696	0,00077
3678,21816	0,00083
3676,28937	0,00091
3674,36057	0,00092
3672,43177	0,00087
3670,50297	0,00081
3668,57417	0,00071
3666,64538	0,00058
3664,71658	0,00051
3662,78778	0,00053
3660,85898	0,00059
3658,93018	0,00066
3657,00138	0,0007
3655,07259	0,00073
3653,14379	0,00079
3651,21499	0,00092
3649,28619	0,00105
3647,35739	0,00101
3645,4286	0,00088
3643,4998	0,00083
3641,571	0,00083
3639,6422	0,00078
3637,7134	0,00075
3635,7846	0,00078
3633,85581	0,00088
3631,92701	0,00099
3629,99821	0,00106
3628,06941	0,00105
3626,14061	0,00099
3624,21182	0,00097
3622,28302	0,00103
3620,35422	0,00115
3618,42542	0,00122
3616,49662	0,0012
3614,56782	0,00121
3612,63903	0,00125
3610,71023	0,00128
3608,78143	0,00134
3606,85263	0,00141
3604,92383	0,00144
3602,99504	0,00148
3601,06624	0,00157
3599,13744	0,00163
3597,20864	0,0017
3595,27984	0,00181
3593,35104	0,00188
3591,42225	0,00193
3589,49345	0,00206
3587,56465	0,00221
3585,63585	0,00229
3583,70705	0,00231
3581,77825	0,00236
3579,84946	0,00242
3577,92066	0,0025
3575,99186	0,00257
3574,06306	0,00263
3572,13426	0,00272
3570,20547	0,00284
3568,27667	0,00292
3566,34787	0,0029
3564,41907	0,00283
3562,49027	0,00281
3560,56147	0,00286
3558,63268	0,00286
3556,70388	0,00282
3554,77508	0,00282
3552,84628	0,00283
3550,91748	0,00275
3548,98869	0,00268
3547,05989	0,00272
3545,13109	0,00275
3543,20229	0,00273
3541,27349	0,00271
3539,34469	0,0027
3537,4159	0,00264
3535,4871	0,00257
3533,5583	0,00253
3531,6295	0,00246
3529,7007	0,00237
3527,77191	0,00234
3525,84311	0,00235
3523,91431	0,00234
3521,98551	0,00229
3520,05671	0,00221
3518,12791	0,00218
3516,19912	0,00216
3514,27032	0,00208
3512,34152	0,00197
3510,41272	0,00191
3508,48392	0,00187
3506,55513	0,00181
3504,62633	0,00179
3502,69753	0,00183
3500,76873	0,00184
3498,83993	0,00184
3496,91113	0,00183
3494,98234	0,00179
3493,05354	0,00174
3491,12474	0,00172
3489,19594	0,00174
3487,26714	0,0018
3485,33835	0,00187
3483,40955	0,00195
3481,48075	0,00204
3479,55195	0,00207
3477,62315	0,00205
3475,69435	0,00208
3473,76556	0,00215
3471,83676	0,00221
3469,90796	0,00224
3467,97916	0,00222
3466,05036	0,00216
3464,12156	0,0021
3462,19277	0,00207
3460,26397	0,00206
3458,33517	0,00203
3456,40637	0,00197
3454,47757	0,00189
3452,54878	0,00178
3450,61998	0,00165
3448,69118	0,00153
3446,76238	0,00148
3444,83358	0,00155
3442,90478	0,00163
3440,97599	0,00159
3439,04719	0,00147
3437,11839	0,00142
3435,18959	0,00144
3433,26079	0,00143
3431,332	0,00139
3429,4032	0,00133
3427,4744	0,0013
3425,5456	0,00133
3423,6168	0,00137
3421,688	0,00134
3419,75921	0,00128
3417,83041	0,00123
3415,90161	0,0012
3413,97281	0,0012
3412,04401	0,00119
3410,11522	0,00115
3408,18642	0,0011
3406,25762	0,00107
3404,32882	0,00106
3402,40002	0,00108
3400,47122	0,00111
3398,54243	0,00111
3396,61363	0,00107
3394,68483	0,00106
3392,75603	0,00106
3390,82723	0,00104
3388,89844	0,00101
3386,96964	0,001
3385,04084	0,00098
3383,11204	0,00098
3381,18324	0,00099
3379,25444	0,00099
3377,32565	0,00097
3375,39685	0,00095
3373,46805	0,00098
3371,53925	0,00104
3369,61045	0,00104
3367,68165	0,00099
3365,75286	0,00096
3363,82406	0,00094
3361,89526	0,00092
3359,96646	0,0009
3358,03766	0,00091
3356,10887	0,00094
3354,18007	0,00097
3352,25127	0,00095
3350,32247	0,00092
3348,39367	0,00086
3346,46487	0,00078
3344,53608	0,00075
3342,60728	0,00082
3340,67848	0,00092
3338,74968	0,00097
3336,82088	0,00095
3334,89209	0,00088
3332,96329	0,00081
3331,03449	0,00075
3329,10569	0,00073
3327,17689	0,00078
3325,24809	0,0008
3323,3193	0,00076
3321,3905	0,00075
3319,4617	0,00078
3317,5329	0,00074
3315,6041	0,00068
3313,67531	0,00068
3311,74651	0,00076
3309,81771	0,00084
3307,88891	0,00086
3305,96011	0,00082
3304,03131	0,00079
3302,10252	0,00081
3300,17372	0,00085
3298,24492	0,00084
3296,31612	0,00079
3294,38732	0,00078
3292,45853	0,00079
3290,52973	0,00076
3288,60093	0,00072
3286,67213	0,00072
3284,74333	0,00072
3282,81453	0,00073
3280,88574	0,00072
3278,95694	0,00071
3277,02814	0,00071
3275,09934	0,0007
3273,17054	0,00071
3271,24174	0,00074
3269,31295	0,00077
3267,38415	0,00076
3265,45535	0,00072
3263,52655	0,00069
3261,59775	0,00068
3259,66896	0,00068
3257,74016	0,00069
3255,81136	0,0007
3253,88256	0,0007
3251,95376	0,00072
3250,02496	0,00074
3248,09617	0,00076
3246,16737	0,00076
3244,23857	0,00075
3242,30977	0,00072
3240,38097	0,0007
3238,45218	0,00073
3236,52338	0,00077
3234,59458	0,00076
3232,66578	0,00076
3230,73698	0,00078
3228,80818	0,00081
3226,87939	0,00082
3224,95059	0,00082
3223,02179	0,00082
3221,09299	0,00085
3219,16419	0,00088
3217,2354	0,00088
3215,3066	0,00084
3213,3778	0,00081
3211,449	0,00081
3209,5202	0,00084
3207,5914	0,00086
3205,66261	0,00089
3203,73381	0,00092
3201,80501	0,0009
3199,87621	0,00087
3197,94741	0,00089
3196,01862	0,00093
3194,08982	0,00094
3192,16102	0,00093
3190,23222	0,00093
3188,30342	0,00093
3186,37462	0,00095
3184,44583	0,001
3182,51703	0,00102
3180,58823	0,00103
3178,65943	0,00105
3176,73063	0,00105
3174,80184	0,00101
3172,87304	0,00098
3170,94424	0,00098
3169,01544	0,001
3167,08664	0,00104
3165,15784	0,00109
3163,22905	0,00112
3161,30025	0,0011
3159,37145	0,00106
3157,44265	0,00105
3155,51385	0,00104
3153,58505	0,00103
3151,65626	0,00106
3149,72746	0,00111
3147,79866	0,00112
3145,86986	0,00109
3143,94106	0,00105
3142,01227	0,00105
3140,08347	0,00109
3138,15467	0,00113
3136,22587	0,00112
3134,29707	0,00111
3132,36827	0,00112
3130,43948	0,00115
3128,51068	0,00115
3126,58188	0,00114
3124,65308	0,00112
3122,72428	0,00114
3120,79549	0,00117
3118,86669	0,0012
3116,93789	0,00123
3115,00909	0,00124
3113,08029	0,00122
3111,15149	0,0012
3109,2227	0,00121
3107,2939	0,00124
3105,3651	0,00125
3103,4363	0,00125
3101,5075	0,00127
3099,57871	0,00129
3097,64991	0,00129
3095,72111	0,00135
3093,79231	0,00142
3091,86351	0,00145
3089,93471	0,00144
3088,00592	0,00143
3086,07712	0,00143
3084,14832	0,00149
3082,21952	0,00157
3080,29072	0,00161
3078,36193	0,00162
3076,43313	0,00162
3074,50433	0,00162
3072,57553	0,00161
3070,64673	0,00159
3068,71793	0,00161
3066,78914	0,0017
3064,86034	0,0018
3062,93154	0,00186
3061,00274	0,00186
3059,07394	0,00187
3057,14514	0,00193
3055,21635	0,00203
3053,28755	0,00212
3051,35875	0,00217
3049,42995	0,00221
3047,50115	0,00223
3045,57236	0,00226
3043,64356	0,00232
3041,71476	0,00241
3039,78596	0,00248
3037,85716	0,00255
3035,92836	0,00266
3033,99957	0,00276
3032,07077	0,00284
3030,14197	0,00292
3028,21317	0,00304
3026,28437	0,00318
3024,35558	0,00332
3022,42678	0,00345
3020,49798	0,00358
3018,56918	0,00372
3016,64038	0,00385
3014,71158	0,00404
3012,78279	0,00429
3010,85399	0,00455
3008,92519	0,0048
3006,99639	0,00508
3005,06759	0,00536
3003,1388	0,00564
3001,21	0,00597
2999,2812	0,00638
2997,3524	0,00686
2995,4236	0,00745
2993,4948	0,00813
2991,56601	0,00894
2989,63721	0,0099
2987,70841	0,01101
2985,77961	0,01221
2983,85081	0,01354
2981,92202	0,01522
2979,99322	0,01748
2978,06442	0,02035
2976,13562	0,02375
2974,20682	0,0277
2972,27802	0,03236
2970,34923	0,03793
2968,42043	0,04441
2966,49163	0,05152
2964,56283	0,05884
2962,63403	0,06598
2960,70524	0,07246
2958,77644	0,07774
2956,84764	0,08129
2954,91884	0,08266
2952,99004	0,08185
2951,06124	0,07966
2949,13245	0,07746
2947,20365	0,07647
2945,27485	0,07733
2943,34605	0,08022
2941,41725	0,08503
2939,48845	0,09156
2937,55966	0,0996
2935,63086	0,10873
2933,70206	0,11825
2931,77326	0,12741
2929,84446	0,13552
2927,91567	0,14194
2925,98687	0,14613
2924,05807	0,14759
2922,12927	0,14599
2920,20047	0,14133
2918,27167	0,13416
2916,34288	0,12541
2914,41408	0,1161
2912,48528	0,10708
2910,55648	0,09879
2908,62768	0,09133
2906,69889	0,08467
2904,77009	0,07876
2902,84129	0,0735
2900,91249	0,06877
2898,98369	0,06443
2897,05489	0,06034
2895,1261	0,05643
2893,1973	0,05268
2891,2685	0,04916
2889,3397	0,046
2887,4109	0,04341
2885,48211	0,04157
2883,55331	0,04069
2881,62451	0,04104
2879,69571	0,04294
2877,76691	0,04649
2875,83811	0,05126
2873,90932	0,05603
2871,98052	0,05932
2870,05172	0,06081
2868,12292	0,06182
2866,19412	0,06415
2864,26533	0,06872
2862,33653	0,07533
2860,40773	0,08285
2858,47893	0,08971
2856,55013	0,09435
2854,62133	0,09551
2852,69254	0,0924
2850,76374	0,08514
2848,83494	0,07482
2846,90614	0,06312
2844,97734	0,05172
2843,04854	0,04181
2841,11975	0,0339
2839,19095	0,02789
2837,26215	0,02339
2835,33335	0,02002
2833,40455	0,01747
2831,47576	0,01553
2829,54696	0,01402
2827,61816	0,01282
2825,68936	0,01183
2823,76056	0,01097
2821,83176	0,0102
2819,90297	0,00951
2817,97417	0,00889
2816,04537	0,00832
2814,11657	0,00782
2812,18777	0,00738
2810,25898	0,00699
2808,33018	0,00661
2806,40138	0,00624
2804,47258	0,00591
2802,54378	0,00566
2800,61498	0,00545
2798,68619	0,00526
2796,75739	0,00506
2794,82859	0,00485
2792,89979	0,00466
2790,97099	0,00447
2789,0422	0,00428
2787,1134	0,00412
2785,1846	0,00399
2783,2558	0,00386
2781,327	0,00373
2779,3982	0,0036
2777,46941	0,00348
2775,54061	0,00337
2773,61181	0,00326
2771,68301	0,00314
2769,75421	0,00304
2767,82542	0,00299
2765,89662	0,00296
2763,96782	0,00291
2762,03902	0,00286
2760,11022	0,00281
2758,18142	0,00278
2756,25263	0,00276
2754,32383	0,00273
2752,39503	0,00271
2750,46623	0,00272
2748,53743	0,00273
2746,60863	0,00272
2744,67984	0,00272
2742,75104	0,00276
2740,82224	0,00281
2738,89344	0,00285
2736,96464	0,0029
2735,03585	0,00296
2733,10705	0,00301
2731,17825	0,00304
2729,24945	0,00304
2727,32065	0,003
2725,39185	0,00295
2723,46306	0,00289
2721,53426	0,00283
2719,60546	0,00275
2717,67666	0,00269
2715,74786	0,00265
2713,81907	0,00262
2711,89027	0,00257
2709,96147	0,00252
2708,03267	0,0025
2706,10387	0,0025
2704,17507	0,00247
2702,24628	0,00244
2700,31748	0,00244
2698,38868	0,00247
2696,45988	0,00251
2694,53108	0,00256
2692,60229	0,00258
2690,67349	0,00258
2688,74469	0,0026
2686,81589	0,00261
2684,88709	0,00261
2682,95829	0,00262
2681,0295	0,00266
2679,1007	0,0027
2677,1719	0,00272
2675,2431	0,00273
2673,3143	0,00275
2671,38551	0,00275
2669,45671	0,00272
2667,52791	0,00267
2665,59911	0,00262
2663,67031	0,00257
2661,74151	0,0025
2659,81272	0,00243
2657,88392	0,00239
2655,95512	0,00238
2654,02632	0,00237
2652,09752	0,00235
2650,16873	0,00229
2648,23993	0,00224
2646,31113	0,00217
2644,38233	0,00211
2642,45353	0,00206
2640,52473	0,00203
2638,59594	0,00202
2636,66714	0,002
2634,73834	0,00199
2632,80954	0,00195
2630,88074	0,00192
2628,95194	0,00193
2627,02315	0,00195
2625,09435	0,00194
2623,16555	0,0019
2621,23675	0,00188
2619,30795	0,00187
2617,37916	0,00181
2615,45036	0,00176
2613,52156	0,00177
2611,59276	0,00178
2609,66396	0,00175
2607,73516	0,00171
2605,80637	0,00167
2603,87757	0,00161
2601,94877	0,0016
2600,01997	0,00159
2598,09117	0,00153
2596,16238	0,00145
2594,23358	0,00142
2592,30478	0,00146
2590,37598	0,00151
2588,44718	0,00151
2586,51838	0,00148
2584,58959	0,00145
2582,66079	0,00145
2580,73199	0,00146
2578,80319	0,00143
2576,87439	0,00137
2574,9456	0,00133
2573,0168	0,00132
2571,088	0,00132
2569,1592	0,00131
2567,2304	0,00128
2565,3016	0,00124
2563,37281	0,00121
2561,44401	0,00121
2559,51521	0,00121
2557,58641	0,00118
2555,65761	0,00113
2553,72882	0,00108
2551,80002	0,00108
2549,87122	0,0011
2547,94242	0,00109
2546,01362	0,00108
2544,08482	0,00109
2542,15603	0,00107
2540,22723	0,00101
2538,29843	0,001
2536,36963	0,00104
2534,44083	0,00105
2532,51203	0,00104
2530,58324	0,00104
2528,65444	0,00105
2526,72564	0,00104
2524,79684	0,00103
2522,86804	0,00103
2520,93925	0,00099
2519,01045	0,00094
2517,08165	0,00094
2515,15285	0,00095
2513,22405	0,00093
2511,29525	0,00086
2509,36646	0,00081
2507,43766	0,00083
2505,50886	0,00088
2503,58006	0,0009
2501,65126	0,00085
2499,72247	0,00079
2497,79367	0,00075
2495,86487	0,00075
2493,93607	0,0008
2492,00727	0,00085
2490,07847	0,00082
2488,14968	0,00079
2486,22088	0,0008
2484,29208	0,00082
2482,36328	0,00081
2480,43448	0,00079
2478,50569	0,00081
2476,57689	0,00079
2474,64809	0,00075
2472,71929	0,00075
2470,79049	0,00077
2468,86169	0,00079
2466,9329	0,00083
2465,0041	0,00086
2463,0753	0,00086
2461,1465	0,00083
2459,2177	0,00077
2457,28891	0,00074
2455,36011	0,00076
2453,43131	0,00076
2451,50251	0,0007
2449,57371	0,00067
2447,64491	0,00073
2445,71612	0,00082
2443,78732	0,00085
2441,85852	0,0008
2439,92972	0,00078
2438,00092	0,00079
2436,07212	0,00076
2434,14333	0,0007
2432,21453	0,00068
2430,28573	0,00072
2428,35693	0,00077
2426,42813	0,00081
2424,49934	0,00084
2422,57054	0,00086
2420,64174	0,00088
2418,71294	0,00088
2416,78414	0,00087
2414,85534	0,00086
2412,92655	0,00086
2410,99775	0,00088
2409,06895	0,00086
2407,14015	0,00082
2405,21135	0,0008
2403,28256	0,00081
2401,35376	0,00085
2399,42496	0,00089
2397,49616	0,00088
2395,56736	0,00085
2393,63856	0,00084
2391,70977	0,00084
2389,78097	0,00085
2387,85217	0,00087
2385,92337	0,00084
2383,99457	0,00077
2382,06578	0,00075
2380,13698	0,00075
2378,20818	0,00074
2376,27938	0,00073
2374,35058	0,0007
2372,42178	0,0007
2370,49299	0,00069
2368,56419	0,00069
2366,63539	0,00069
2364,70659	0,00069
2362,77779	0,00068
2360,849	0,00068
2358,9202	0,00068
2356,9914	0,00068
2355,0626	0,00067
2353,1338	0,00066
2351,205	0,00066
2349,27621	0,00066
2347,34741	0,00066
2345,41861	0,00066
2343,48981	0,00066
2341,56101	0,00065
2339,63222	0,00064
2337,70342	0,00064
2335,77462	0,00064
2333,84582	0,00062
2331,91702	0,00062
2329,98822	0,00062
2328,05943	0,00062
2326,13063	0,0006
2324,20183	0,0006
2322,27303	0,0006
2320,34423	0,0006
2318,41543	0,00058
2316,48664	0,00058
2314,55784	0,00058
2312,62904	0,00058
2310,70024	0,00057
2308,77144	0,00056
2306,84265	0,00056
2304,91385	0,00056
2302,98505	0,00055
2301,05625	0,00055
2299,12745	0,00053
2297,19865	0,00051
2295,26986	0,00053
2293,34106	0,00056
2291,41226	0,00061
2289,48346	0,00063
2287,55466	0,00064
2285,62587	0,00068
2283,69707	0,00077
2281,76827	0,00083
2279,83947	0,00083
2277,91067	0,00086
2275,98187	0,00087
2274,05308	0,00085
2272,12428	0,00083
2270,19548	0,00083
2268,26668	0,00083
2266,33788	0,0008
2264,40909	0,00082
2262,48029	0,00087
2260,55149	0,0009
2258,62269	0,00092
2256,69389	0,00091
2254,76509	0,00086
2252,8363	0,00076
2250,9075	0,00069
2248,9787	0,00068
2247,0499	0,0007
2245,1211	0,00072
2243,19231	0,00073
2241,26351	0,00072
2239,33471	0,00069
2237,40591	0,00061
2235,47711	0,00052
2233,54831	0,00048
2231,61952	0,00046
2229,69072	0,00046
2227,76192	0,00049
2225,83312	0,00055
2223,90432	0,00055
2221,97552	0,0005
2220,04673	0,00047
2218,11793	0,00046
2216,18913	0,00044
2214,26033	0,00041
2212,33153	0,00035
2210,40274	0,00027
2208,47394	0,0002
2206,54514	0,00015
2204,61634	0,00015
2202,68754	0,00017
2200,75874	0,0002
2198,82995	0,00025
2196,90115	0,00033
2194,97235	0,00037
2193,04355	0,00033
2191,11475	0,00031
2189,18596	0,00035
2187,25716	0,00038
2185,32836	0,00039
2183,39956	0,00035
2181,47076	0,00032
2179,54196	0,0004
2177,61317	0,00054
2175,68437	0,0007
2173,75557	0,00083
2171,82677	0,00082
2169,89797	0,00069
2167,96918	0,0006
2166,04038	0,00062
2164,11158	0,00062
2162,18278	0,00062
2160,25398	0,00068
2158,32518	0,00079
2156,39639	0,00088
2154,46759	0,00079
2152,53879	0,00062
2150,60999	0,00055
2148,68119	0,00055
2146,7524	0,00055
2144,8236	0,00059
2142,8948	0,00063
2140,966	0,0006
2139,0372	0,00055
2137,1084	0,00059
2135,17961	0,00071
2133,25081	0,00083
2131,32201	0,00088
2129,39321	0,00093
2127,46441	0,001
2125,53561	0,00108
2123,60682	0,00106
2121,67802	0,00099
2119,74922	0,00098
2117,82042	0,00109
2115,89162	0,00123
2113,96283	0,00127
2112,03403	0,00118
2110,10523	0,00109
2108,17643	0,00111
2106,24763	0,00119
2104,31883	0,00123
2102,39004	0,00125
2100,46124	0,00127
2098,53244	0,00124
2096,60364	0,00115
2094,67484	0,00111
2092,74605	0,00115
2090,81725	0,00117
2088,88845	0,00121
2086,95965	0,0013
2085,03085	0,00135
2083,10205	0,00127
2081,17326	0,00122
2079,24446	0,00132
2077,31566	0,00145
2075,38686	0,00145
2073,45806	0,00136
2071,52927	0,00129
2069,60047	0,00127
2067,67167	0,00128
2065,74287	0,00136
2063,81407	0,00144
2061,88527	0,00145
2059,95648	0,00145
2058,02768	0,00151
2056,09888	0,00155
2054,17008	0,0016
2052,24128	0,00158
2050,31249	0,00141
2048,38369	0,0013
2046,45489	0,00138
2044,52609	0,00151
2042,59729	0,00154
2040,66849	0,00148
2038,7397	0,00136
2036,8109	0,00126
2034,8821	0,00128
2032,9533	0,00137
2031,0245	0,00144
2029,09571	0,00145
2027,16691	0,00142
2025,23811	0,00143
2023,30931	0,00139
2021,38051	0,00129
2019,45171	0,00124
2017,52292	0,00128
2015,59412	0,00128
2013,66532	0,00125
2011,73652	0,00125
2009,80772	0,00128
2007,87892	0,00124
2005,95013	0,00114
2004,02133	0,00108
2002,09253	0,00109
2000,16373	0,00117
1998,23493	0,00126
1996,30614	0,00135
1994,37734	0,00145
1992,44854	0,00144
1990,51974	0,00135
1988,59094	0,00139
1986,66214	0,00147
1984,73335	0,00145
1982,80455	0,00138
1980,87575	0,0013
1978,94695	0,0012
1977,01815	0,00108
1975,08936	0,001
1973,16056	0,00105
1971,23176	0,00119
1969,30296	0,00129
1967,37416	0,00132
1965,44536	0,00127
1963,51657	0,00123
1961,58777	0,00126
1959,65897	0,00132
1957,73017	0,00136
1955,80137	0,00132
1953,87258	0,00131
1951,94378	0,00134
1950,01498	0,00133
1948,08618	0,00132
1946,15738	0,00136
1944,22858	0,00145
1942,29979	0,00151
1940,37099	0,00152
1938,44219	0,00153
1936,51339	0,00155
1934,58459	0,00155
1932,6558	0,00155
1930,727	0,00157
1928,7982	0,00154
1926,8694	0,00148
1924,9406	0,00149
1923,0118	0,00156
1921,08301	0,00162
1919,15421	0,00167
1917,22541	0,00169
1915,29661	0,00167
1913,36781	0,00166
1911,43901	0,00159
1909,51022	0,00149
1907,58142	0,00147
1905,65262	0,00155
1903,72382	0,00163
1901,79502	0,00163
1899,86623	0,0016
1897,93743	0,00159
1896,00863	0,00158
1894,07983	0,00157
1892,15103	0,00158
1890,22223	0,0016
1888,29344	0,00157
1886,36464	0,00151
1884,43584	0,00149
1882,50704	0,00157
1880,57824	0,00169
1878,64945	0,00171
1876,72065	0,0017
1874,79185	0,00173
1872,86305	0,00178
1870,93425	0,00183
1869,00545	0,00187
1867,07666	0,00186
1865,14786	0,00186
1863,21906	0,00192
1861,29026	0,00196
1859,36146	0,00198
1857,43267	0,00203
1855,50387	0,0021
1853,57507	0,00217
1851,64627	0,00223
1849,71747	0,00229
1847,78867	0,00235
1845,85988	0,00244
1843,93108	0,00248
1842,00228	0,00249
1840,07348	0,00251
1838,14468	0,00256
1836,21589	0,00267
1834,28709	0,00277
1832,35829	0,00289
1830,42949	0,00303
1828,50069	0,00314
1826,57189	0,00323
1824,6431	0,00331
1822,7143	0,00344
1820,7855	0,00356
1818,8567	0,00372
1816,9279	0,00387
1814,9991	0,00403
1813,07031	0,00421
1811,14151	0,00441
1809,21271	0,00462
1807,28391	0,00478
1805,35511	0,00495
1803,42632	0,00517
1801,49752	0,00547
1799,56872	0,00577
1797,63992	0,00603
1795,71112	0,00631
1793,78232	0,00665
1791,85353	0,00709
1789,92473	0,00747
1787,99593	0,00786
1786,06713	0,00834
1784,13833	0,00893
1782,20954	0,00964
1780,28074	0,01046
1778,35194	0,01144
1776,42314	0,01253
1774,49434	0,01394
1772,56554	0,0159
1770,63675	0,01842
1768,70795	0,02162
1766,77915	0,02594
1764,85035	0,03174
1762,92155	0,04016
1760,99276	0,05237
1759,06396	0,06788
1757,13516	0,08786
1755,20636	0,11218
1753,27756	0,13922
1751,34876	0,17121
1749,41997	0,20672
1747,49117	0,23876
1745,56237	0,26384
1743,63357	0,28005
1741,70477	0,2846
1739,77598	0,27549
1737,84718	0,2566
1735,91838	0,23061
1733,98958	0,19431
1732,06078	0,15859
1730,13198	0,13175
1728,20319	0,10913
1726,27439	0,09008
1724,34559	0,07445
1722,41679	0,06192
1720,48799	0,05238
1718,5592	0,04414
1716,6304	0,03657
1714,7016	0,031
1712,7728	0,02728
1710,844	0,02457
1708,9152	0,02258
1706,98641	0,02096
1705,05761	0,01953
1703,12881	0,01834
1701,20001	0,01706
1699,27121	0,01551
1697,34241	0,01406
1695,41362	0,01265
1693,48482	0,01132
1691,55602	0,01035
1689,62722	0,00954
1687,69842	0,00889
1685,76963	0,00838
1683,84083	0,00773
1681,91203	0,00709
1679,98323	0,00663
1678,05443	0,00633
1676,12563	0,00606
1674,19684	0,00579
1672,26804	0,00555
1670,33924	0,00533
1668,41044	0,00505
1666,48164	0,00478
1664,55285	0,00461
1662,62405	0,00445
1660,69525	0,00429
1658,76645	0,00418
1656,83765	0,00415
1654,90885	0,0042
1652,98006	0,00415
1651,05126	0,00397
1649,12246	0,00389
1647,19366	0,00388
1645,26486	0,00377
1643,33607	0,00363
1641,40727	0,00357
1639,47847	0,0036
1637,54967	0,00368
1635,62087	0,00366
1633,69207	0,00351
1631,76328	0,00339
1629,83448	0,00334
1627,90568	0,00333
1625,97688	0,00334
1624,04808	0,00336
1622,11929	0,00332
1620,19049	0,00328
1618,26169	0,00327
1616,33289	0,00326
1614,40409	0,00317
1612,47529	0,00308
1610,5465	0,00303
1608,6177	0,003
1606,6889	0,00295
1604,7601	0,0029
1602,8313	0,00288
1600,9025	0,00286
1598,97371	0,00284
1597,04491	0,00283
1595,11611	0,00282
1593,18731	0,00278
1591,25851	0,00274
1589,32972	0,00272
1587,40092	0,00271
1585,47212	0,00271
1583,54332	0,00272
1581,61452	0,00274
1579,68572	0,00278
1577,75693	0,00283
1575,82813	0,00286
1573,89933	0,00282
1571,97053	0,00283
1570,04173	0,00288
1568,11294	0,0029
1566,18414	0,0029
1564,25534	0,00293
1562,32654	0,00301
1560,39774	0,00317
1558,46894	0,00328
1556,54015	0,00319
1554,61135	0,0031
1552,68255	0,00308
1550,75375	0,00309
1548,82495	0,0031
1546,89616	0,00314
1544,96736	0,00327
1543,03856	0,00343
1541,10976	0,00354
1539,18096	0,00352
1537,25216	0,00342
1535,32337	0,0034
1533,39457	0,00345
1531,46577	0,00345
1529,53697	0,00349
1527,60817	0,00361
1525,67938	0,00377
1523,75058	0,00391
1521,82178	0,00403
1519,89298	0,0041
1517,96418	0,00411
1516,03538	0,00411
1514,10659	0,00411
1512,17779	0,0042
1510,24899	0,0044
1508,32019	0,00468
1506,39139	0,00491
1504,46259	0,00492
1502,5338	0,00493
1500,605	0,00508
1498,6762	0,00535
1496,7474	0,00563
1494,8186	0,00587
1492,88981	0,00617
1490,96101	0,00667
1489,03221	0,00733
1487,10341	0,00807
1485,17461	0,00898
1483,24581	0,01025
1481,31702	0,01194
1479,38822	0,01406
1477,45942	0,01686
1475,53062	0,0211
1473,60182	0,02861
1471,67303	0,0403
1469,74423	0,05201
1467,81543	0,06015
1465,88663	0,06448
1463,95783	0,06604
1462,02903	0,0667
1460,10024	0,0673
1458,17144	0,06721
1456,24264	0,06481
1454,31384	0,06039
1452,38504	0,05541
1450,45625	0,05067
1448,52745	0,04685
1446,59865	0,04405
1444,66985	0,04201
1442,74105	0,04029
1440,81225	0,03857
1438,88346	0,03665
1436,95466	0,0341
1435,02586	0,03125
1433,09706	0,02891
1431,16826	0,02711
1429,23947	0,02585
1427,31067	0,02545
1425,38187	0,02605
1423,45307	0,02756
1421,52427	0,02956
1419,59547	0,03145
1417,66668	0,03206
1415,73788	0,03072
1413,80908	0,02802
1411,88028	0,02488
1409,95148	0,02226
1408,02269	0,02063
1406,09389	0,01994
1404,16509	0,01988
1402,23629	0,02018
1400,30749	0,02063
1398,37869	0,02111
1396,4499	0,02172
1394,5211	0,02272
1392,5923	0,02436
1390,6635	0,02679
1388,7347	0,03032
1386,8059	0,03485
1384,87711	0,03962
1382,94831	0,04454
1381,01951	0,04974
1379,09071	0,05379
1377,16191	0,0548
1375,23312	0,05262
1373,30432	0,04905
1371,37552	0,0462
1369,44672	0,04473
1367,51792	0,04421
1365,58912	0,04397
1363,66033	0,04357
1361,73153	0,04301
1359,80273	0,04248
1357,87393	0,04203
1355,94513	0,04162
1354,01634	0,04121
1352,08754	0,04075
1350,15874	0,04022
1348,22994	0,03968
1346,30114	0,03932
1344,37234	0,03916
1342,44355	0,03899
1340,51475	0,03845
1338,58595	0,03739
1336,65715	0,03607
1334,72835	0,03487
1332,79956	0,03405
1330,87076	0,03377
1328,94196	0,03419
1327,01316	0,0352
1325,08436	0,03648
1323,15556	0,03764
1321,22677	0,03852
1319,29797	0,03915
1317,36917	0,03957
1315,44037	0,0398
1313,51157	0,03991
1311,58278	0,03998
1309,65398	0,04013
1307,72518	0,04049
1305,79638	0,0412
1303,86758	0,04221
1301,93878	0,04337
1300,00999	0,04442
1298,08119	0,04499
1296,15239	0,0449
1294,22359	0,04442
1292,29479	0,04409
1290,36599	0,04427
1288,4372	0,04495
1286,5084	0,04595
1284,5796	0,0471
1282,6508	0,04828
1280,722	0,04942
1278,79321	0,05057
1276,86441	0,05186
1274,93561	0,05346
1273,00681	0,0555
1271,07801	0,05802
1269,14921	0,06086
1267,22042	0,06359
1265,29162	0,06576
1263,36282	0,06713
1261,43402	0,06786
1259,50522	0,06835
1257,57643	0,06901
1255,64763	0,07011
1253,71883	0,07177
1251,79003	0,07399
1249,86123	0,07651
1247,93243	0,07875
1246,00364	0,08008
1244,07484	0,08012
1242,14604	0,07904
1240,21724	0,07761
1238,28844	0,0767
1236,35965	0,0768
1234,43085	0,07793
1232,50205	0,07988
1230,57325	0,0824
1228,64445	0,08506
1226,71565	0,08723
1224,78686	0,08834
1222,85806	0,08833
1220,92926	0,08766
1219,00046	0,08692
1217,07166	0,08644
1215,14287	0,08628
1213,21407	0,08635
1211,28527	0,08649
1209,35647	0,08669
1207,42767	0,08712
1205,49887	0,08803
1203,57008	0,08948
1201,64128	0,09137
1199,71248	0,09358
1197,78368	0,09604
1195,85488	0,09855
1193,92608	0,1009
1191,99729	0,10302
1190,06849	0,10506
1188,13969	0,10728
1186,21089	0,1099
1184,28209	0,11309
1182,3533	0,11703
1180,4245	0,12184
1178,4957	0,12758
1176,5669	0,1343
1174,6381	0,14214
1172,7093	0,15121
1170,78051	0,16161
1168,85171	0,17328
1166,92291	0,18589
1164,99411	0,19883
1163,06531	0,21124
1161,13652	0,22222
1159,20772	0,23112
1157,27892	0,23742
1155,35012	0,24063
1153,42132	0,24023
1151,49252	0,23562
1149,56373	0,2262
1147,63493	0,21176
1145,70613	0,19282
1143,77733	0,17071
1141,84853	0,14745
1139,91974	0,12523
1137,99094	0,10572
1136,06214	0,08979
1134,13334	0,07768
1132,20454	0,06941
1130,27574	0,06504
1128,34695	0,06476
1126,41815	0,06851
1124,48935	0,07577
1122,56055	0,08549
1120,63175	0,09635
1118,70296	0,10714
1116,77416	0,11711
1114,84536	0,12601
1112,91656	0,13386
1110,98776	0,14061
1109,05896	0,14606
1107,13017	0,14994
1105,20137	0,15199
1103,27257	0,15196
1101,34377	0,14965
1099,41497	0,14463
1097,48618	0,13648
1095,55738	0,1253
1093,62858	0,11206
1091,69978	0,09826
1089,77098	0,08546
1087,84218	0,07474
1085,91339	0,06649
1083,98459	0,0606
1082,05579	0,05688
1080,12699	0,05501
1078,19819	0,05457
1076,26939	0,05513
1074,3406	0,05637
1072,4118	0,05802
1070,483	0,05984
1068,5542	0,06161
1066,6254	0,06311
1064,69661	0,06412
1062,76781	0,06445
1060,83901	0,064
1058,91021	0,06281
1056,98141	0,06108
1055,05261	0,05906
1053,12382	0,05703
1051,19502	0,05524
1049,26622	0,05382
1047,33742	0,05282
1045,40862	0,05226
1043,47983	0,05208
1041,55103	0,05202
1039,62223	0,05184
1037,69343	0,05144
1035,76463	0,0508
1033,83583	0,04989
1031,90704	0,04878
1029,97824	0,04756
1028,04944	0,04635
1026,12064	0,04519
1024,19184	0,04411
1022,26305	0,04318
1020,33425	0,04248
1018,40545	0,04205
1016,47665	0,04189
1014,54785	0,04191
1012,61905	0,042
1010,69026	0,04204
1008,76146	0,04192
1006,83266	0,04163
1004,90386	0,04114
1002,97506	0,04044
1001,04627	0,03955
999,11747	0,03848
997,18867	0,03728
995,25987	0,036
993,33107	0,03478
991,40227	0,0337
989,47348	0,0328
987,54468	0,03213
985,61588	0,03167
983,68708	0,03137
981,75828	0,03123
979,82948	0,03131
977,90069	0,03163
975,97189	0,03211
974,04309	0,03271
972,11429	0,03344
970,18549	0,03434
968,2567	0,03529
966,3279	0,03602
964,3991	0,03636
962,4703	0,03627
960,5415	0,03577
958,6127	0,03492
956,68391	0,03385
954,75511	0,03261
952,82631	0,03121
950,89751	0,02974
948,96871	0,02832
947,03992	0,02701
945,11112	0,02585
943,18232	0,02492
941,25352	0,0242
939,32472	0,02365
937,39592	0,02327
935,46713	0,023
933,53833	0,02283
931,60953	0,02267
929,68073	0,02245
927,75193	0,02222
925,82314	0,02209
923,89434	0,02207
921,96554	0,02214
920,03674	0,02224
918,10794	0,02234
916,17914	0,02235
914,25035	0,02219
912,32155	0,02187
910,39275	0,02151
908,46395	0,02122
906,53515	0,02101
904,60636	0,02091
902,67756	0,02092
900,74876	0,02105
898,81996	0,02124
896,89116	0,02143
894,96236	0,02155
893,03357	0,02162
891,10477	0,02169
889,17597	0,02174
887,24717	0,02171
885,31837	0,02164
883,38958	0,0216
881,46078	0,02164
879,53198	0,02174
877,60318	0,02186
875,67438	0,02196
873,74558	0,02206
871,81679	0,02217
869,88799	0,02229
867,95919	0,02236
866,03039	0,02232
864,10159	0,02215
862,17279	0,02182
860,244	0,02133
858,3152	0,02107
856,3864	0,02123
854,4576	0,02145
852,5288	0,02139
850,60001	0,02114
848,67121	0,02083
846,74241	0,02045
844,81361	0,01997
842,88481	0,0194
840,95601	0,01879
839,02722	0,01824
837,09842	0,01771
835,16962	0,01719
833,24082	0,01674
831,31202	0,01634
829,38323	0,0159
827,45443	0,01539
825,52563	0,01485
823,59683	0,01428
821,66803	0,01367
819,73923	0,01304
817,81044	0,01246
815,88164	0,01195
813,95284	0,0116
812,02404	0,01141
810,09524	0,01131
808,16645	0,01129
806,23765	0,01141
804,30885	0,01163
802,38005	0,01184
800,45125	0,012
798,52245	0,0121
796,59366	0,01215
794,66486	0,01211
792,73606	0,01204
790,80726	0,01201
788,87846	0,01208
786,94967	0,01222
785,02087	0,01238
783,09207	0,01263
781,16327	0,01305
779,23447	0,0136
777,30567	0,01424
775,37688	0,01493
773,44808	0,01552
771,51928	0,0159
769,59048	0,0161
767,66168	0,01615
765,73288	0,01612
763,80409	0,01609
761,87529	0,01616
759,94649	0,01636
758,01769	0,01661
756,08889	0,01689
754,1601	0,01727
752,2313	0,01775
750,3025	0,01827
748,3737	0,01877
746,4449	0,01923
744,5161	0,01971
742,58731	0,02028
740,65851	0,02106
738,72971	0,02214
736,80091	0,02357
734,87211	0,02544
732,94332	0,02795
731,01452	0,03138
729,08572	0,03583
727,15692	0,04095
725,22812	0,04542
723,29932	0,04704
721,37053	0,04452
719,44173	0,03911
717,51293	0,03345
715,58413	0,02905
713,65533	0,02585
711,72654	0,02336
709,79774	0,02124
707,86894	0,0194
705,94014	0,01789
704,01134	0,01668
702,08254	0,01566
700,15375	0,01477
698,22495	0,01404
696,29615	0,01346
694,36735	0,01294
692,43855	0,01241
690,50976	0,01194
688,58096	0,01162
686,65216	0,01142
684,72336	0,01124
682,79456	0,01102
680,86576	0,01084
678,93697	0,01073
677,00817	0,01065
675,07937	0,01063
673,15057	0,01063
671,22177	0,01043
669,29297	0,01009
667,36418	0,01018
665,43538	0,0107
663,50658	0,01106
661,57778	0,0112
659,64898	0,01122
657,72019	0,01126
655,79139	0,01137
653,86259	0,01149
651,93379	0,01155
650,00499	0,01148
648,07619	0,01137
646,1474	0,01144
644,2186	0,0116
642,2898	0,01167
640,361	0,01169
638,4322	0,01152
636,50341	0,01102
634,57461	0,0106
632,64581	0,01063
630,71701	0,01101
628,78821	0,01136
626,85941	0,01142
624,93062	0,01118
623,00182	0,01085
621,07302	0,01096
619,14422	0,01158
617,21542	0,01201
615,28663	0,01195
613,35783	0,01182
611,42903	0,01188
609,50023	0,01203
607,57143	0,01249
605,64263	0,01364
603,71384	0,01498
601,78504	0,01534
599,85624	0,0147
597,92744	0,01418
595,99864	0,01424
594,06985	0,01448
592,14105	0,01482
590,21225	0,01536
588,28345	0,0156
586,35465	0,01537
584,42585	0,01549
582,49706	0,01623
580,56826	0,0166
578,63946	0,01563
576,71066	0,0135
574,78186	0,01169
572,85307	0,01162
570,92427	0,01292
568,99547	0,01352
567,06667	0,01263
565,13787	0,01213
563,20907	0,01257
561,28028	0,01267
559,35148	0,01206
557,42268	0,01128
555,49388	0,01112
553,56508	0,01155
551,63628	0,01207
549,70749	0,01258
547,77869	0,013
545,84989	0,01322
543,92109	0,01272
541,99229	0,01037
540,0635	0,00729
538,1347	0,00803
536,2059	0,01242
534,2771	0,01455
532,3483	0,01257
530,4195	0,01113
528,49071	0,01562
526,56191	0,02137
524,63311	0,01498
522,70431	-0,00185
520,77551	-0,01194
518,84672	-0,01165
516,91792	-0,01044
514,98912	-0,00596
513,06032	0,00115
511,13152	-0,00136
509,20272	-0,00294
507,27393	0,00769
505,34513	0,01094
503,41633	-0,00082
501,48753	-0,00526
499,55873	0,00362
