Liczba falowa [cm-1]	Absorbancja [a.u.]
3996,46987	0,00664
3994,54107	0,00662
3992,61227	0,00662
3990,68347	0,00663
3988,75467	0,00663
3986,82588	0,0066
3984,89708	0,00658
3982,96828	0,00658
3981,03948	0,00661
3979,11068	0,00664
3977,18189	0,00662
3975,25309	0,00657
3973,32429	0,00653
3971,39549	0,00651
3969,46669	0,00651
3967,53789	0,00652
3965,6091	0,00653
3963,6803	0,00657
3961,7515	0,0066
3959,8227	0,00659
3957,8939	0,00653
3955,96511	0,00645
3954,03631	0,0064
3952,10751	0,00638
3950,17871	0,00637
3948,24991	0,0064
3946,32111	0,00645
3944,39232	0,00644
3942,46352	0,00638
3940,53472	0,0064
3938,60592	0,00648
3936,67712	0,00647
3934,74833	0,00639
3932,81953	0,00632
3930,89073	0,00632
3928,96193	0,00638
3927,03313	0,00643
3925,10433	0,00642
3923,17554	0,00635
3921,24674	0,00629
3919,31794	0,00624
3917,38914	0,00625
3915,46034	0,00633
3913,53155	0,00638
3911,60275	0,00637
3909,67395	0,00637
3907,74515	0,0064
3905,81635	0,00637
3903,88755	0,00624
3901,95876	0,00611
3900,02996	0,0061
3898,10116	0,00621
3896,17236	0,00633
3894,24356	0,00635
3892,31476	0,0063
3890,38597	0,00626
3888,45717	0,00627
3886,52837	0,00626
3884,59957	0,00626
3882,67077	0,00629
3880,74198	0,00629
3878,81318	0,00631
3876,88438	0,00633
3874,95558	0,00628
3873,02678	0,00615
3871,09798	0,00605
3869,16919	0,00605
3867,24039	0,00611
3865,31159	0,00611
3863,38279	0,00611
3861,45399	0,00621
3859,5252	0,00629
3857,5964	0,00626
3855,6676	0,00613
3853,7388	0,00594
3851,81	0,00593
3849,8812	0,00611
3847,95241	0,00628
3846,02361	0,00633
3844,09481	0,00625
3842,16601	0,00613
3840,23721	0,00605
3838,30842	0,00598
3836,37962	0,00596
3834,45082	0,006
3832,52202	0,00607
3830,59322	0,00614
3828,66442	0,00618
3826,73563	0,00617
3824,80683	0,00614
3822,87803	0,00608
3820,94923	0,00602
3819,02043	0,00601
3817,09164	0,00604
3815,16284	0,00607
3813,23404	0,00613
3811,30524	0,00619
3809,37644	0,00619
3807,44764	0,00615
3805,51885	0,00613
3803,59005	0,00611
3801,66125	0,00606
3799,73245	0,00608
3797,80365	0,00613
3795,87486	0,00616
3793,94606	0,00623
3792,01726	0,00633
3790,08846	0,00636
3788,15966	0,00632
3786,23086	0,00626
3784,30207	0,00624
3782,37327	0,00625
3780,44447	0,00624
3778,51567	0,00622
3776,58687	0,00626
3774,65807	0,00631
3772,72928	0,0063
3770,80048	0,00623
3768,87168	0,00617
3766,94288	0,00618
3765,01408	0,00623
3763,08529	0,00627
3761,15649	0,00626
3759,22769	0,00621
3757,29889	0,00619
3755,37009	0,00614
3753,44129	0,00602
3751,5125	0,00586
3749,5837	0,00583
3747,6549	0,0059
3745,7261	0,00592
3743,7973	0,00586
3741,86851	0,00586
3739,93971	0,00589
3738,01091	0,00589
3736,08211	0,00578
3734,15331	0,00563
3732,22451	0,00562
3730,29572	0,00573
3728,36692	0,00584
3726,43812	0,00588
3724,50932	0,00588
3722,58052	0,00587
3720,65173	0,0059
3718,72293	0,00599
3716,79413	0,00608
3714,86533	0,00608
3712,93653	0,00603
3711,00773	0,00594
3709,07894	0,00589
3707,15014	0,00589
3705,22134	0,00588
3703,29254	0,00586
3701,36374	0,0059
3699,43495	0,00597
3697,50615	0,00598
3695,57735	0,00594
3693,64855	0,00591
3691,71975	0,00582
3689,79095	0,00568
3687,86216	0,00566
3685,93336	0,00574
3684,00456	0,00582
3682,07576	0,00588
3680,14696	0,00594
3678,21816	0,00592
3676,28937	0,00578
3674,36057	0,00567
3672,43177	0,00567
3670,50297	0,00566
3668,57417	0,00566
3666,64538	0,00573
3664,71658	0,00582
3662,78778	0,00591
3660,85898	0,00597
3658,93018	0,00593
3657,00138	0,0058
3655,07259	0,00567
3653,14379	0,00561
3651,21499	0,00554
3649,28619	0,00545
3647,35739	0,00549
3645,4286	0,00564
3643,4998	0,00578
3641,571	0,00589
3639,6422	0,00595
3637,7134	0,00594
3635,7846	0,00585
3633,85581	0,00578
3631,92701	0,00578
3629,99821	0,00576
3628,06941	0,00572
3626,14061	0,00575
3624,21182	0,00584
3622,28302	0,0059
3620,35422	0,00585
3618,42542	0,00576
3616,49662	0,00579
3614,56782	0,00587
3612,63903	0,00588
3610,71023	0,00583
3608,78143	0,00582
3606,85263	0,00587
3604,92383	0,00592
3602,99504	0,00592
3601,06624	0,00588
3599,13744	0,00583
3597,20864	0,00579
3595,27984	0,00579
3593,35104	0,00584
3591,42225	0,00587
3589,49345	0,00583
3587,56465	0,00579
3585,63585	0,00586
3583,70705	0,00595
3581,77825	0,00597
3579,84946	0,00599
3577,92066	0,00605
3575,99186	0,00613
3574,06306	0,00617
3572,13426	0,00616
3570,20547	0,00612
3568,27667	0,00608
3566,34787	0,00612
3564,41907	0,0062
3562,49027	0,00626
3560,56147	0,00627
3558,63268	0,0063
3556,70388	0,00635
3554,77508	0,0064
3552,84628	0,00648
3550,91748	0,00652
3548,98869	0,00649
3547,05989	0,00646
3545,13109	0,0065
3543,20229	0,00661
3541,27349	0,00675
3539,34469	0,00683
3537,4159	0,00683
3535,4871	0,00684
3533,5583	0,00689
3531,6295	0,00695
3529,7007	0,00698
3527,77191	0,00701
3525,84311	0,00709
3523,91431	0,00723
3521,98551	0,0074
3520,05671	0,00754
3518,12791	0,00766
3516,19912	0,00774
3514,27032	0,00781
3512,34152	0,00791
3510,41272	0,00806
3508,48392	0,00819
3506,55513	0,0083
3504,62633	0,00842
3502,69753	0,00854
3500,76873	0,0087
3498,83993	0,00889
3496,91113	0,00905
3494,98234	0,0092
3493,05354	0,00935
3491,12474	0,00953
3489,19594	0,00975
3487,26714	0,01
3485,33835	0,01019
3483,40955	0,01032
3481,48075	0,01054
3479,55195	0,01086
3477,62315	0,01108
3475,69435	0,01124
3473,76556	0,01148
3471,83676	0,01181
3469,90796	0,01211
3467,97916	0,01242
3466,05036	0,01274
3464,12156	0,01299
3462,19277	0,01319
3460,26397	0,01344
3458,33517	0,01377
3456,40637	0,01411
3454,47757	0,01443
3452,54878	0,01475
3450,61998	0,01508
3448,69118	0,01542
3446,76238	0,01577
3444,83358	0,01615
3442,90478	0,01651
3440,97599	0,01686
3439,04719	0,0172
3437,11839	0,01755
3435,18959	0,01795
3433,26079	0,01838
3431,332	0,01881
3429,4032	0,01926
3427,4744	0,01974
3425,5456	0,02026
3423,6168	0,02085
3421,688	0,02148
3419,75921	0,02213
3417,83041	0,02278
3415,90161	0,02345
3413,97281	0,02415
3412,04401	0,02486
3410,11522	0,02553
3408,18642	0,02613
3406,25762	0,0266
3404,32882	0,02696
3402,40002	0,02725
3400,47122	0,02753
3398,54243	0,02776
3396,61363	0,02792
3394,68483	0,02805
3392,75603	0,02822
3390,82723	0,02846
3388,89844	0,02877
3386,96964	0,02912
3385,04084	0,02948
3383,11204	0,02992
3381,18324	0,03045
3379,25444	0,031
3377,32565	0,03155
3375,39685	0,0321
3373,46805	0,03265
3371,53925	0,03321
3369,61045	0,03375
3367,68165	0,03419
3365,75286	0,03455
3363,82406	0,03489
3361,89526	0,03522
3359,96646	0,03549
3358,03766	0,03574
3356,10887	0,03597
3354,18007	0,03619
3352,25127	0,0364
3350,32247	0,03658
3348,39367	0,0367
3346,46487	0,03684
3344,53608	0,03704
3342,60728	0,03727
3340,67848	0,03749
3338,74968	0,03768
3336,82088	0,03783
3334,89209	0,03794
3332,96329	0,03805
3331,03449	0,03815
3329,10569	0,03825
3327,17689	0,03834
3325,24809	0,0384
3323,3193	0,03845
3321,3905	0,03851
3319,4617	0,03857
3317,5329	0,03857
3315,6041	0,03854
3313,67531	0,03847
3311,74651	0,0384
3309,81771	0,0384
3307,88891	0,03845
3305,96011	0,03845
3304,03131	0,0384
3302,10252	0,03835
3300,17372	0,03831
3298,24492	0,03828
3296,31612	0,03821
3294,38732	0,03808
3292,45853	0,03793
3290,52973	0,03779
3288,60093	0,03763
3286,67213	0,03745
3284,74333	0,03728
3282,81453	0,03707
3280,88574	0,03685
3278,95694	0,03662
3277,02814	0,03635
3275,09934	0,03606
3273,17054	0,0358
3271,24174	0,03554
3269,31295	0,03528
3267,38415	0,03505
3265,45535	0,03478
3263,52655	0,03445
3261,59775	0,03411
3259,66896	0,03384
3257,74016	0,03361
3255,81136	0,03341
3253,88256	0,0332
3251,95376	0,0329
3250,02496	0,03259
3248,09617	0,03232
3246,16737	0,03208
3244,23857	0,03184
3242,30977	0,0316
3240,38097	0,03139
3238,45218	0,0312
3236,52338	0,031
3234,59458	0,0308
3232,66578	0,03063
3230,73698	0,03047
3228,80818	0,03029
3226,87939	0,03011
3224,95059	0,02996
3223,02179	0,02981
3221,09299	0,02966
3219,16419	0,0295
3217,2354	0,02933
3215,3066	0,02916
3213,3778	0,02901
3211,449	0,02889
3209,5202	0,02878
3207,5914	0,02864
3205,66261	0,0285
3203,73381	0,02836
3201,80501	0,02821
3199,87621	0,02809
3197,94741	0,02798
3196,01862	0,02785
3194,08982	0,02771
3192,16102	0,02758
3190,23222	0,02746
3188,30342	0,02736
3186,37462	0,02726
3184,44583	0,02717
3182,51703	0,02705
3180,58823	0,02691
3178,65943	0,02676
3176,73063	0,0266
3174,80184	0,02642
3172,87304	0,02626
3170,94424	0,02612
3169,01544	0,02601
3167,08664	0,02589
3165,15784	0,02571
3163,22905	0,0255
3161,30025	0,0253
3159,37145	0,02515
3157,44265	0,02502
3155,51385	0,02487
3153,58505	0,02471
3151,65626	0,02453
3149,72746	0,02431
3147,79866	0,02406
3145,86986	0,02386
3143,94106	0,02369
3142,01227	0,02352
3140,08347	0,02333
3138,15467	0,02312
3136,22587	0,02292
3134,29707	0,02274
3132,36827	0,02256
3130,43948	0,0224
3128,51068	0,02225
3126,58188	0,02209
3124,65308	0,0219
3122,72428	0,02172
3120,79549	0,02155
3118,86669	0,02137
3116,93789	0,02119
3115,00909	0,02105
3113,08029	0,02092
3111,15149	0,02076
3109,2227	0,02055
3107,2939	0,02037
3105,3651	0,02022
3103,4363	0,02005
3101,5075	0,01989
3099,57871	0,01977
3097,64991	0,01965
3095,72111	0,0195
3093,79231	0,01934
3091,86351	0,01918
3089,93471	0,019
3088,00592	0,01877
3086,07712	0,01856
3084,14832	0,01844
3082,21952	0,01837
3080,29072	0,01828
3078,36193	0,01813
3076,43313	0,01795
3074,50433	0,01779
3072,57553	0,01771
3070,64673	0,01764
3068,71793	0,01754
3066,78914	0,01741
3064,86034	0,0173
3062,93154	0,01721
3061,00274	0,01708
3059,07394	0,01695
3057,14514	0,01687
3055,21635	0,01681
3053,28755	0,01672
3051,35875	0,01662
3049,42995	0,01652
3047,50115	0,01642
3045,57236	0,01633
3043,64356	0,01625
3041,71476	0,01616
3039,78596	0,01603
3037,85716	0,01594
3035,92836	0,01588
3033,99957	0,01583
3032,07077	0,01576
3030,14197	0,01571
3028,21317	0,01569
3026,28437	0,01569
3024,35558	0,01566
3022,42678	0,01562
3020,49798	0,01559
3018,56918	0,01555
3016,64038	0,0155
3014,71158	0,01545
3012,78279	0,01545
3010,85399	0,01547
3008,92519	0,01551
3006,99639	0,01566
3005,06759	0,016
3003,1388	0,01659
3001,21	0,01743
2999,2812	0,01829
2997,3524	0,0188
2995,4236	0,01875
2993,4948	0,01835
2991,56601	0,01796
2989,63721	0,01779
2987,70841	0,01783
2985,77961	0,01809
2983,85081	0,01846
2981,92202	0,01864
2979,99322	0,01839
2978,06442	0,01778
2976,13562	0,01711
2974,20682	0,01662
2972,27802	0,01642
2970,34923	0,01658
2968,42043	0,01713
2966,49163	0,01797
2964,56283	0,01894
2962,63403	0,01971
2960,70524	0,01979
2958,77644	0,01909
2956,84764	0,01807
2954,91884	0,01724
2952,99004	0,01682
2951,06124	0,01675
2949,13245	0,0169
2947,20365	0,0171
2945,27485	0,01726
2943,34605	0,01743
2941,41725	0,01773
2939,48845	0,01822
2937,55966	0,01894
2935,63086	0,01984
2933,70206	0,02077
2931,77326	0,02146
2929,84446	0,02169
2927,91567	0,02139
2925,98687	0,02069
2924,05807	0,01989
2922,12927	0,01919
2920,20047	0,01867
2918,27167	0,01833
2916,34288	0,01812
2914,41408	0,01803
2912,48528	0,01799
2910,55648	0,01792
2908,62768	0,01782
2906,69889	0,01773
2904,77009	0,01765
2902,84129	0,01754
2900,91249	0,01741
2898,98369	0,01729
2897,05489	0,01719
2895,1261	0,01712
2893,1973	0,01709
2891,2685	0,01713
2889,3397	0,01719
2887,4109	0,01728
2885,48211	0,01741
2883,55331	0,01757
2881,62451	0,01775
2879,69571	0,01788
2877,76691	0,01794
2875,83811	0,01794
2873,90932	0,01789
2871,98052	0,01778
2870,05172	0,01759
2868,12292	0,01739
2866,19412	0,01722
2864,26533	0,01709
2862,33653	0,01699
2860,40773	0,01686
2858,47893	0,01668
2856,55013	0,01649
2854,62133	0,01635
2852,69254	0,01626
2850,76374	0,01622
2848,83494	0,01627
2846,90614	0,01643
2844,97734	0,01662
2843,04854	0,01677
2841,11975	0,01689
2839,19095	0,01697
2837,26215	0,017
2835,33335	0,01699
2833,40455	0,01694
2831,47576	0,01686
2829,54696	0,01678
2827,61816	0,0167
2825,68936	0,01664
2823,76056	0,01655
2821,83176	0,01647
2819,90297	0,01639
2817,97417	0,01632
2816,04537	0,01626
2814,11657	0,01617
2812,18777	0,01606
2810,25898	0,01599
2808,33018	0,01597
2806,40138	0,01592
2804,47258	0,01582
2802,54378	0,01568
2800,61498	0,01556
2798,68619	0,01547
2796,75739	0,01537
2794,82859	0,01525
2792,89979	0,01511
2790,97099	0,015
2789,0422	0,01494
2787,1134	0,0149
2785,1846	0,01484
2783,2558	0,01478
2781,327	0,01474
2779,3982	0,01469
2777,46941	0,01463
2775,54061	0,01458
2773,61181	0,01454
2771,68301	0,01448
2769,75421	0,01444
2767,82542	0,01446
2765,89662	0,0145
2763,96782	0,01454
2762,03902	0,01458
2760,11022	0,01463
2758,18142	0,01474
2756,25263	0,01486
2754,32383	0,01493
2752,39503	0,01499
2750,46623	0,01508
2748,53743	0,01516
2746,60863	0,0152
2744,67984	0,0152
2742,75104	0,01513
2740,82224	0,01506
2738,89344	0,015
2736,96464	0,01489
2735,03585	0,01475
2733,10705	0,01462
2731,17825	0,01454
2729,24945	0,01448
2727,32065	0,01443
2725,39185	0,01437
2723,46306	0,01426
2721,53426	0,01414
2719,60546	0,01402
2717,67666	0,01392
2715,74786	0,01385
2713,81907	0,01383
2711,89027	0,01381
2709,96147	0,01376
2708,03267	0,01374
2706,10387	0,01377
2704,17507	0,01376
2702,24628	0,01369
2700,31748	0,01361
2698,38868	0,01356
2696,45988	0,01355
2694,53108	0,01357
2692,60229	0,01358
2690,67349	0,01358
2688,74469	0,01357
2686,81589	0,01353
2684,88709	0,01351
2682,95829	0,01351
2681,0295	0,01351
2679,1007	0,01346
2677,1719	0,01338
2675,2431	0,01331
2673,3143	0,01325
2671,38551	0,01317
2669,45671	0,0131
2667,52791	0,01305
2665,59911	0,01304
2663,67031	0,01307
2661,74151	0,01311
2659,81272	0,01312
2657,88392	0,0131
2655,95512	0,01308
2654,02632	0,01307
2652,09752	0,01305
2650,16873	0,01304
2648,23993	0,01305
2646,31113	0,01305
2644,38233	0,01299
2642,45353	0,01292
2640,52473	0,01287
2638,59594	0,0128
2636,66714	0,01272
2634,73834	0,01264
2632,80954	0,01259
2630,88074	0,01255
2628,95194	0,0125
2627,02315	0,01242
2625,09435	0,01235
2623,16555	0,01232
2621,23675	0,01226
2619,30795	0,01217
2617,37916	0,01205
2615,45036	0,01197
2613,52156	0,01192
2611,59276	0,01188
2609,66396	0,0118
2607,73516	0,01172
2605,80637	0,01168
2603,87757	0,01169
2601,94877	0,01168
2600,01997	0,01159
2598,09117	0,0115
2596,16238	0,01147
2594,23358	0,01146
2592,30478	0,01142
2590,37598	0,01136
2588,44718	0,0113
2586,51838	0,01124
2584,58959	0,01117
2582,66079	0,01111
2580,73199	0,01108
2578,80319	0,01107
2576,87439	0,01109
2574,9456	0,01113
2573,0168	0,01112
2571,088	0,01109
2569,1592	0,01111
2567,2304	0,01115
2565,3016	0,01114
2563,37281	0,01108
2561,44401	0,01105
2559,51521	0,01103
2557,58641	0,01101
2555,65761	0,01098
2553,72882	0,01099
2551,80002	0,01101
2549,87122	0,01099
2547,94242	0,01096
2546,01362	0,01096
2544,08482	0,01097
2542,15603	0,01098
2540,22723	0,01098
2538,29843	0,01098
2536,36963	0,01102
2534,44083	0,01106
2532,51203	0,01103
2530,58324	0,01098
2528,65444	0,01096
2526,72564	0,01098
2524,79684	0,01097
2522,86804	0,01094
2520,93925	0,01092
2519,01045	0,01092
2517,08165	0,0109
2515,15285	0,0109
2513,22405	0,01092
2511,29525	0,01094
2509,36646	0,01095
2507,43766	0,01097
2505,50886	0,01097
2503,58006	0,01095
2501,65126	0,01096
2499,72247	0,01101
2497,79367	0,01104
2495,86487	0,01105
2493,93607	0,01106
2492,00727	0,01108
2490,07847	0,01108
2488,14968	0,01106
2486,22088	0,01102
2484,29208	0,01097
2482,36328	0,01091
2480,43448	0,01086
2478,50569	0,0108
2476,57689	0,01072
2474,64809	0,01065
2472,71929	0,01064
2470,79049	0,01065
2468,86169	0,01068
2466,9329	0,01069
2465,0041	0,01064
2463,0753	0,01056
2461,1465	0,01053
2459,2177	0,01056
2457,28891	0,01059
2455,36011	0,01059
2453,43131	0,0106
2451,50251	0,01061
2449,57371	0,01059
2447,64491	0,01058
2445,71612	0,01061
2443,78732	0,01062
2441,85852	0,01059
2439,92972	0,01061
2438,00092	0,01066
2436,07212	0,01059
2434,14333	0,01045
2432,21453	0,01037
2430,28573	0,01035
2428,35693	0,01033
2426,42813	0,01028
2424,49934	0,01025
2422,57054	0,01025
2420,64174	0,01025
2418,71294	0,01022
2416,78414	0,01013
2414,85534	0,01008
2412,92655	0,01008
2410,99775	0,01007
2409,06895	0,01006
2407,14015	0,01005
2405,21135	0,01005
2403,28256	0,01005
2401,35376	0,01004
2399,42496	0,01004
2397,49616	0,01003
2395,56736	0,01021
2393,63856	0,01018
2391,70977	0,01016
2389,78097	0,01016
2387,85217	0,01011
2385,92337	0,01002
2383,99457	0,00988
2382,06578	0,0098
2380,13698	0,00977
2378,20818	0,00975
2376,27938	0,00975
2374,35058	0,00974
2372,42178	0,00973
2370,49299	0,00972
2368,56419	0,0097
2366,63539	0,0097
2364,70659	0,00965
2362,77779	0,00965
2360,849	0,00963
2358,9202	0,00963
2356,9914	0,00962
2355,0626	0,0096
2353,1338	0,00959
2351,205	0,00957
2349,27621	0,00957
2347,34741	0,00957
2345,41861	0,00956
2343,48981	0,00955
2341,56101	0,00952
2339,63222	0,0095
2337,70342	0,00949
2335,77462	0,00949
2333,84582	0,00946
2331,91702	0,00946
2329,98822	0,00945
2328,05943	0,00942
2326,13063	0,00942
2324,20183	0,00942
2322,27303	0,00941
2320,34423	0,0094
2318,41543	0,00939
2316,48664	0,00939
2314,55784	0,00939
2312,62904	0,00939
2310,70024	0,00939
2308,77144	0,00939
2306,84265	0,00938
2304,91385	0,00937
2302,98505	0,00937
2301,05625	0,00937
2299,12745	0,00937
2297,19865	0,00936
2295,26986	0,00936
2293,34106	0,00936
2291,41226	0,00932
2289,48346	0,0093
2287,55466	0,0093
2285,62587	0,0093
2283,69707	0,00928
2281,76827	0,00928
2279,83947	0,00928
2277,91067	0,00934
2275,98187	0,00937
2274,05308	0,00935
2272,12428	0,00932
2270,19548	0,00928
2268,26668	0,00922
2266,33788	0,00913
2264,40909	0,0091
2262,48029	0,00917
2260,55149	0,00927
2258,62269	0,00929
2256,69389	0,00925
2254,76509	0,00915
2252,8363	0,00904
2250,9075	0,00899
2248,9787	0,00904
2247,0499	0,00912
2245,1211	0,0091
2243,19231	0,00902
2241,26351	0,00895
2239,33471	0,00889
2237,40591	0,00887
2235,47711	0,00886
2233,54831	0,00887
2231,61952	0,00884
2229,69072	0,00871
2227,76192	0,0086
2225,83312	0,00863
2223,90432	0,00874
2221,97552	0,00881
2220,04673	0,0088
2218,11793	0,00873
2216,18913	0,00872
2214,26033	0,00873
2212,33153	0,00871
2210,40274	0,00876
2208,47394	0,00886
2206,54514	0,00885
2204,61634	0,00869
2202,68754	0,00863
2200,75874	0,00878
2198,82995	0,00892
2196,90115	0,00891
2194,97235	0,00876
2193,04355	0,00854
2191,11475	0,00843
2189,18596	0,00851
2187,25716	0,00862
2185,32836	0,00859
2183,39956	0,00843
2181,47076	0,00827
2179,54196	0,00829
2177,61317	0,00836
2175,68437	0,00828
2173,75557	0,00815
2171,82677	0,00813
2169,89797	0,00816
2167,96918	0,00819
2166,04038	0,00819
2164,11158	0,00812
2162,18278	0,008
2160,25398	0,00776
2158,32518	0,00743
2156,39639	0,00725
2154,46759	0,00727
2152,53879	0,00747
2150,60999	0,0078
2148,68119	0,00806
2146,7524	0,00822
2144,8236	0,00833
2142,8948	0,00835
2140,966	0,00828
2139,0372	0,00822
2137,1084	0,00824
2135,17961	0,00825
2133,25081	0,00822
2131,32201	0,00826
2129,39321	0,0084
2127,46441	0,00849
2125,53561	0,00851
2123,60682	0,0085
2121,67802	0,00854
2119,74922	0,00855
2117,82042	0,00853
2115,89162	0,00854
2113,96283	0,00858
2112,03403	0,0086
2110,10523	0,00863
2108,17643	0,00867
2106,24763	0,00868
2104,31883	0,00869
2102,39004	0,00877
2100,46124	0,00889
2098,53244	0,00894
2096,60364	0,00896
2094,67484	0,00895
2092,74605	0,00887
2090,81725	0,00876
2088,88845	0,00875
2086,95965	0,00876
2085,03085	0,00875
2083,10205	0,00873
2081,17326	0,00874
2079,24446	0,00879
2077,31566	0,00881
2075,38686	0,00872
2073,45806	0,00862
2071,52927	0,00858
2069,60047	0,00851
2067,67167	0,00836
2065,74287	0,00825
2063,81407	0,00821
2061,88527	0,00818
2059,95648	0,00814
2058,02768	0,00808
2056,09888	0,00806
2054,17008	0,00816
2052,24128	0,0083
2050,31249	0,00833
2048,38369	0,00823
2046,45489	0,00811
2044,52609	0,00805
2042,59729	0,00808
2040,66849	0,00811
2038,7397	0,00805
2036,8109	0,00794
2034,8821	0,0079
2032,9533	0,00791
2031,0245	0,00789
2029,09571	0,00787
2027,16691	0,00787
2025,23811	0,00785
2023,30931	0,00783
2021,38051	0,0078
2019,45171	0,00776
2017,52292	0,00777
2015,59412	0,00786
2013,66532	0,00788
2011,73652	0,00785
2009,80772	0,00789
2007,87892	0,00794
2005,95013	0,00795
2004,02133	0,00792
2002,09253	0,00787
2000,16373	0,00787
1998,23493	0,00794
1996,30614	0,00802
1994,37734	0,00804
1992,44854	0,008
1990,51974	0,00799
1988,59094	0,00804
1986,66214	0,00809
1984,73335	0,00812
1982,80455	0,00817
1980,87575	0,00814
1978,94695	0,00802
1977,01815	0,00787
1975,08936	0,00772
1973,16056	0,00761
1971,23176	0,00757
1969,30296	0,00756
1967,37416	0,00761
1965,44536	0,00767
1963,51657	0,00767
1961,58777	0,00763
1959,65897	0,00757
1957,73017	0,0075
1955,80137	0,00744
1953,87258	0,00748
1951,94378	0,00759
1950,01498	0,0077
1948,08618	0,00775
1946,15738	0,00777
1944,22858	0,00777
1942,29979	0,00777
1940,37099	0,00783
1938,44219	0,00791
1936,51339	0,00795
1934,58459	0,00794
1932,6558	0,00789
1930,727	0,00784
1928,7982	0,00781
1926,8694	0,00779
1924,9406	0,00781
1923,0118	0,00786
1921,08301	0,00792
1919,15421	0,00789
1917,22541	0,00783
1915,29661	0,0078
1913,36781	0,00779
1911,43901	0,00776
1909,51022	0,00776
1907,58142	0,00782
1905,65262	0,00786
1903,72382	0,00789
1901,79502	0,00793
1899,86623	0,00792
1897,93743	0,00788
1896,00863	0,00791
1894,07983	0,008
1892,15103	0,00807
1890,22223	0,0081
1888,29344	0,00816
1886,36464	0,00821
1884,43584	0,00818
1882,50704	0,00809
1880,57824	0,00799
1878,64945	0,0079
1876,72065	0,00787
1874,79185	0,00789
1872,86305	0,0079
1870,93425	0,0078
1869,00545	0,00764
1867,07666	0,00757
1865,14786	0,00754
1863,21906	0,00747
1861,29026	0,00736
1859,36146	0,00725
1857,43267	0,00718
1855,50387	0,00715
1853,57507	0,00713
1851,64627	0,00709
1849,71747	0,00704
1847,78867	0,00697
1845,85988	0,0069
1843,93108	0,00688
1842,00228	0,00691
1840,07348	0,00692
1838,14468	0,00691
1836,21589	0,00691
1834,28709	0,00692
1832,35829	0,00691
1830,42949	0,00684
1828,50069	0,00681
1826,57189	0,00686
1824,6431	0,00691
1822,7143	0,00694
1820,7855	0,00695
1818,8567	0,00693
1816,9279	0,0069
1814,9991	0,00688
1813,07031	0,00686
1811,14151	0,00682
1809,21271	0,0068
1807,28391	0,00679
1805,35511	0,00678
1803,42632	0,00672
1801,49752	0,00664
1799,56872	0,0066
1797,63992	0,00663
1795,71112	0,00667
1793,78232	0,00669
1791,85353	0,00675
1789,92473	0,00688
1787,99593	0,00702
1786,06713	0,00715
1784,13833	0,0073
1782,20954	0,00751
1780,28074	0,00776
1778,35194	0,00806
1776,42314	0,00834
1774,49434	0,00858
1772,56554	0,00886
1770,63675	0,00925
1768,70795	0,00974
1766,77915	0,01026
1764,85035	0,01079
1762,92155	0,01144
1760,99276	0,01238
1759,06396	0,01366
1757,13516	0,01549
1755,20636	0,01821
1753,27756	0,02226
1751,34876	0,02895
1749,41997	0,03893
1747,49117	0,05045
1745,56237	0,06111
1743,63357	0,06907
1741,70477	0,07366
1739,77598	0,07491
1737,84718	0,073
1735,91838	0,0675
1733,98958	0,0574
1732,06078	0,0465
1730,13198	0,03836
1728,20319	0,03205
1726,27439	0,02731
1724,34559	0,02394
1722,41679	0,0216
1720,48799	0,02004
1718,5592	0,01888
1716,6304	0,01806
1714,7016	0,01779
1712,7728	0,01793
1710,844	0,0184
1708,9152	0,01931
1706,98641	0,02086
1705,05761	0,02331
1703,12881	0,02674
1701,20001	0,03315
1699,27121	0,04414
1697,34241	0,05786
1695,41362	0,07486
1693,48482	0,09087
1691,55602	0,10077
1689,62722	0,10497
1687,69842	0,10496
1685,76963	0,10363
1683,84083	0,10389
1681,91203	0,10701
1679,98323	0,11181
1678,05443	0,11724
1676,12563	0,12223
1674,19684	0,12502
1672,26804	0,12446
1670,33924	0,12057
1668,41044	0,11451
1666,48164	0,1084
1664,55285	0,10213
1662,62405	0,09483
1660,69525	0,08788
1658,76645	0,08253
1656,83765	0,07832
1654,90885	0,07381
1652,98006	0,06701
1651,05126	0,06105
1649,12246	0,05734
1647,19366	0,05325
1645,26486	0,04886
1643,33607	0,04541
1641,40727	0,04252
1639,47847	0,03984
1637,54967	0,03732
1635,62087	0,03472
1633,69207	0,03262
1631,76328	0,03127
1629,83448	0,03001
1627,90568	0,02869
1625,97688	0,0275
1624,04808	0,0264
1622,11929	0,0254
1620,19049	0,02462
1618,26169	0,02385
1616,33289	0,02292
1614,40409	0,02223
1612,47529	0,02176
1610,5465	0,02127
1608,6177	0,02074
1606,6889	0,02024
1604,7601	0,01977
1602,8313	0,01932
1600,9025	0,01894
1598,97371	0,01861
1597,04491	0,0183
1595,11611	0,01803
1593,18731	0,01782
1591,25851	0,01765
1589,32972	0,01745
1587,40092	0,0172
1585,47212	0,01689
1583,54332	0,01655
1581,61452	0,01623
1579,68572	0,01592
1577,75693	0,01555
1575,82813	0,01514
1573,89933	0,01492
1571,97053	0,01478
1570,04173	0,01456
1568,11294	0,01436
1566,18414	0,01423
1564,25534	0,01414
1562,32654	0,014
1560,39774	0,01368
1558,46894	0,01329
1556,54015	0,01325
1554,61135	0,01332
1552,68255	0,0133
1550,75375	0,01324
1548,82495	0,01313
1546,89616	0,01301
1544,96736	0,01282
1543,03856	0,0126
1541,10976	0,0124
1539,18096	0,01241
1537,25216	0,0126
1535,32337	0,01272
1533,39457	0,01274
1531,46577	0,01281
1529,53697	0,01291
1527,60817	0,01304
1525,67938	0,01327
1523,75058	0,01354
1521,82178	0,01386
1519,89298	0,01425
1517,96418	0,01453
1516,03538	0,01457
1514,10659	0,01443
1512,17779	0,01419
1510,24899	0,01391
1508,32019	0,01367
1506,39139	0,01368
1504,46259	0,01402
1502,5338	0,01441
1500,605	0,01477
1498,6762	0,01517
1496,7474	0,01575
1494,8186	0,01649
1492,88981	0,01724
1490,96101	0,018
1489,03221	0,01882
1487,10341	0,01962
1485,17461	0,02028
1483,24581	0,02082
1481,31702	0,0215
1479,38822	0,02258
1477,45942	0,02372
1475,53062	0,02396
1473,60182	0,02256
1471,67303	0,02034
1469,74423	0,01875
1467,81543	0,01783
1465,88663	0,01723
1463,95783	0,0171
1462,02903	0,01752
1460,10024	0,01833
1458,17144	0,01972
1456,24264	0,02186
1454,31384	0,02395
1452,38504	0,02556
1450,45625	0,02673
1448,52745	0,0276
1446,59865	0,02868
1444,66985	0,03024
1442,74105	0,03182
1440,81225	0,03264
1438,88346	0,03231
1436,95466	0,03109
1435,02586	0,02989
1433,09706	0,02929
1431,16826	0,02929
1429,23947	0,03011
1427,31067	0,03168
1425,38187	0,03316
1423,45307	0,03338
1421,52427	0,03195
1419,59547	0,02935
1417,66668	0,02684
1415,73788	0,02537
1413,80908	0,02457
1411,88028	0,02408
1409,95148	0,02369
1408,02269	0,02324
1406,09389	0,02262
1404,16509	0,02189
1402,23629	0,0212
1400,30749	0,02063
1398,37869	0,02025
1396,4499	0,02018
1394,5211	0,02051
1392,5923	0,02146
1390,6635	0,02334
1388,7347	0,0271
1386,8059	0,03416
1384,87711	0,04416
1382,94831	0,05427
1381,01951	0,06005
1379,09071	0,05809
1377,16191	0,05047
1375,23312	0,04214
1373,30432	0,0358
1371,37552	0,03151
1369,44672	0,02841
1367,51792	0,02608
1365,58912	0,02446
1363,66033	0,02345
1361,73153	0,02308
1359,80273	0,02357
1357,87393	0,02525
1355,94513	0,02881
1354,01634	0,0349
1352,08754	0,0431
1350,15874	0,05119
1348,22994	0,056
1346,30114	0,0561
1344,37234	0,05316
1342,44355	0,05002
1340,51475	0,04878
1338,58595	0,0505
1336,65715	0,05527
1334,72835	0,0624
1332,79956	0,07103
1330,87076	0,08024
1328,94196	0,0892
1327,01316	0,09709
1325,08436	0,10331
1323,15556	0,10801
1321,22677	0,11196
1319,29797	0,11566
1317,36917	0,11857
1315,44037	0,11942
1313,51157	0,11722
1311,58278	0,11193
1309,65398	0,10453
1307,72518	0,09626
1305,79638	0,08816
1303,86758	0,08102
1301,93878	0,07562
1300,00999	0,07289
1298,08119	0,07372
1296,15239	0,07799
1294,22359	0,08366
1292,29479	0,08757
1290,36599	0,08765
1288,4372	0,08422
1286,5084	0,07884
1284,5796	0,07284
1282,6508	0,06677
1280,722	0,0608
1278,79321	0,0552
1276,86441	0,05044
1274,93561	0,04692
1273,00681	0,04447
1271,07801	0,04245
1269,14921	0,04036
1267,22042	0,03819
1265,29162	0,03605
1263,36282	0,03405
1261,43402	0,0322
1259,50522	0,03052
1257,57643	0,029
1255,64763	0,02765
1253,71883	0,02649
1251,79003	0,02547
1249,86123	0,02458
1247,93243	0,02379
1246,00364	0,02307
1244,07484	0,02242
1242,14604	0,02182
1240,21724	0,02127
1238,28844	0,02086
1236,35965	0,02071
1234,43085	0,02092
1232,50205	0,02165
1230,57325	0,02307
1228,64445	0,02526
1226,71565	0,02808
1224,78686	0,03119
1222,85806	0,03416
1220,92926	0,03686
1219,00046	0,03933
1217,07166	0,04109
1215,14287	0,0411
1213,21407	0,0389
1211,28527	0,03512
1209,35647	0,03098
1207,42767	0,02738
1205,49887	0,0246
1203,57008	0,02252
1201,64128	0,02098
1199,71248	0,01986
1197,78368	0,01908
1195,85488	0,01862
1193,92608	0,01846
1191,99729	0,01861
1190,06849	0,01907
1188,13969	0,01985
1186,21089	0,02097
1184,28209	0,02253
1182,3533	0,02473
1180,4245	0,02783
1178,4957	0,03215
1176,5669	0,03815
1174,6381	0,04638
1172,7093	0,05704
1170,78051	0,06909
1168,85171	0,08045
1166,92291	0,0895
1164,99411	0,09589
1163,06531	0,09992
1161,13652	0,102
1159,20772	0,10299
1157,27892	0,10413
1155,35012	0,10594
1153,42132	0,10717
1151,49252	0,10558
1149,56373	0,1001
1147,63493	0,09169
1145,70613	0,08217
1143,77733	0,07295
1141,84853	0,06472
1139,91974	0,05772
1137,99094	0,05191
1136,06214	0,0472
1134,13334	0,04356
1132,20454	0,04105
1130,27574	0,03987
1128,34695	0,04059
1126,41815	0,04427
1124,48935	0,0523
1122,56055	0,06505
1120,63175	0,07964
1118,70296	0,0906
1116,77416	0,0946
1114,84536	0,09268
1112,91656	0,08723
1110,98776	0,08003
1109,05896	0,07245
1107,13017	0,06484
1105,20137	0,0571
1103,27257	0,05018
1101,34377	0,04548
1099,41497	0,04341
1097,48618	0,04336
1095,55738	0,04445
1093,62858	0,0466
1091,69978	0,05117
1089,77098	0,06045
1087,84218	0,07628
1085,91339	0,09828
1083,98459	0,12222
1082,05579	0,14087
1080,12699	0,14824
1078,19819	0,14384
1076,26939	0,13225
1074,3406	0,11886
1072,4118	0,1072
1070,483	0,09878
1068,5542	0,09394
1066,6254	0,09277
1064,69661	0,09619
1062,76781	0,10505
1060,83901	0,11613
1058,91021	0,12173
1056,98141	0,11705
1055,05261	0,10502
1053,12382	0,09126
1051,19502	0,0791
1049,26622	0,06966
1047,33742	0,06293
1045,40862	0,05844
1043,47983	0,05589
1041,55103	0,05551
1039,62223	0,05808
1037,69343	0,06459
1035,76463	0,07529
1033,83583	0,08845
1031,90704	0,10056
1029,97824	0,10848
1028,04944	0,11169
1026,12064	0,11199
1024,19184	0,11128
1022,26305	0,10977
1020,33425	0,10611
1018,40545	0,09964
1016,47665	0,09183
1014,54785	0,08476
1012,61905	0,07919
1010,69026	0,07458
1008,76146	0,07027
1006,83266	0,06613
1004,90386	0,06238
1002,97506	0,05909
1001,04627	0,0562
999,11747	0,0536
997,18867	0,0512
995,25987	0,04893
993,33107	0,04684
991,40227	0,04497
989,47348	0,0433
987,54468	0,04179
985,61588	0,04044
983,68708	0,03923
981,75828	0,0381
979,82948	0,03704
977,90069	0,03603
975,97189	0,03506
974,04309	0,03413
972,11429	0,03325
970,18549	0,03242
968,2567	0,03168
966,3279	0,03102
964,3991	0,03034
962,4703	0,02964
960,5415	0,02902
958,6127	0,02848
956,68391	0,02796
954,75511	0,02751
952,82631	0,0272
950,89751	0,02708
948,96871	0,02725
947,03992	0,02801
945,11112	0,03018
943,18232	0,03525
941,25352	0,0444
939,32472	0,05465
937,39592	0,05876
935,46713	0,05392
933,53833	0,04536
931,60953	0,03837
929,68073	0,03393
927,75193	0,03116
925,82314	0,02931
923,89434	0,02799
921,96554	0,02701
920,03674	0,02624
918,10794	0,02563
916,17914	0,02512
914,25035	0,0247
912,32155	0,02436
910,39275	0,02408
908,46395	0,02381
906,53515	0,02357
904,60636	0,02337
902,67756	0,02321
900,74876	0,02312
898,81996	0,02314
896,89116	0,02338
894,96236	0,02402
893,03357	0,02532
891,10477	0,02778
889,17597	0,0321
887,24717	0,03919
885,31837	0,04937
883,38958	0,06045
881,46078	0,06801
879,53198	0,07019
877,60318	0,07159
875,67438	0,07859
873,74558	0,08976
871,81679	0,09543
869,88799	0,09024
867,95919	0,07898
866,03039	0,06784
864,10159	0,05903
862,17279	0,05253
860,244	0,04785
858,3152	0,0445
856,3864	0,04197
854,4576	0,03992
852,5288	0,03829
850,60001	0,03708
848,67121	0,03617
846,74241	0,03543
844,81361	0,03483
842,88481	0,03433
840,95601	0,03397
839,02722	0,03377
837,09842	0,0337
835,16962	0,03376
833,24082	0,03396
831,31202	0,03448
829,38323	0,03579
827,45443	0,03872
825,52563	0,04455
823,59683	0,05368
821,66803	0,0627
819,73923	0,06553
817,81044	0,06111
815,88164	0,05466
813,95284	0,04998
812,02404	0,04688
810,09524	0,0446
808,16645	0,04311
806,23765	0,04231
804,30885	0,04196
802,38005	0,04181
800,45125	0,04178
798,52245	0,04187
796,59366	0,04208
794,66486	0,04237
792,73606	0,04276
790,80726	0,04323
788,87846	0,04365
786,94967	0,04404
785,02087	0,04443
783,09207	0,04482
781,16327	0,04518
779,23447	0,04553
777,30567	0,04597
775,37688	0,04654
773,44808	0,04718
771,51928	0,04799
769,59048	0,04918
767,66168	0,05111
765,73288	0,05484
763,80409	0,06293
761,87529	0,07853
759,94649	0,10016
758,01769	0,11583
756,08889	0,11302
754,1601	0,09677
752,2313	0,08134
750,3025	0,07263
748,3737	0,06915
746,4449	0,06873
744,5161	0,07044
742,58731	0,0741
740,65851	0,07998
738,72971	0,08863
736,80091	0,10019
734,87211	0,11308
732,94332	0,12325
731,01452	0,12636
729,08572	0,12166
727,15692	0,11231
725,22812	0,10197
723,29932	0,09285
721,37053	0,08594
719,44173	0,08194
717,51293	0,08117
715,58413	0,08302
713,65533	0,08582
711,72654	0,08765
709,79774	0,08776
707,86894	0,08683
705,94014	0,08555
704,01134	0,08401
702,08254	0,08229
700,15375	0,08062
698,22495	0,07928
696,29615	0,07834
694,36735	0,07777
692,43855	0,07748
690,50976	0,07735
688,58096	0,07733
686,65216	0,07743
684,72336	0,07764
682,79456	0,07796
680,86576	0,07842
678,93697	0,07904
677,00817	0,07977
675,07937	0,08041
673,15057	0,0808
671,22177	0,0809
669,29297	0,08074
667,36418	0,08067
665,43538	0,08082
663,50658	0,08066
661,57778	0,07995
659,64898	0,07898
657,72019	0,07875
655,79139	0,08135
653,86259	0,08953
651,93379	0,10229
650,00499	0,1128
648,07619	0,11566
646,1474	0,11285
644,2186	0,10868
642,2898	0,10517
640,361	0,10271
638,4322	0,10074
636,50341	0,09895
634,57461	0,09754
632,64581	0,09638
630,71701	0,09524
628,78821	0,09408
626,85941	0,09267
624,93062	0,09051
623,00182	0,08782
621,07302	0,08602
619,14422	0,08554
617,21542	0,08539
615,28663	0,08486
613,35783	0,08383
611,42903	0,08249
609,50023	0,08126
607,57143	0,08067
605,64263	0,08009
603,71384	0,07844
601,78504	0,07616
599,85624	0,07366
597,92744	0,07108
595,99864	0,071
594,06985	0,07512
592,14105	0,08004
590,21225	0,08214
588,28345	0,08149
586,35465	0,07841
584,42585	0,07346
582,49706	0,06877
580,56826	0,06531
578,63946	0,06251
576,71066	0,06099
574,78186	0,06184
572,85307	0,06379
570,92427	0,06615
568,99547	0,06972
567,06667	0,07335
565,13787	0,07595
563,20907	0,07781
561,28028	0,07873
559,35148	0,07928
557,42268	0,08074
555,49388	0,08318
553,56508	0,08524
551,63628	0,0858
549,70749	0,08569
547,77869	0,08591
545,84989	0,08562
543,92109	0,08402
541,99229	0,0818
540,0635	0,07975
538,1347	0,07765
536,2059	0,07537
534,2771	0,07369
532,3483	0,07088
530,4195	0,06377
528,49071	0,05537
526,56191	0,04857
524,63311	0,0403
522,70431	0,0315
520,77551	0,02535
518,84672	0,02273
516,91792	0,0217
514,98912	0,0184
513,06032	0,01321
511,13152	0,00861
509,20272	0,01069
507,27393	0,01643
505,34513	0,01452
503,41633	0,00612
501,48753	-0,00254
499,55873	-0,00726
